module github.com/shortlink-org/shortlink

go 1.24.1

require (
	github.com/IBM/sarama v1.45.1
	github.com/Masterminds/squirrel v1.5.5-0.20240227163215-1ded5784535d
	github.com/PuerkitoBio/goquery v1.10.2
	github.com/Unleash/unleash-client-go/v4 v4.3.0
	github.com/XSAM/otelsql v0.37.0
	github.com/aerospike/aerospike-client-go v4.5.2+incompatible
	github.com/authzed/authzed-go v1.3.0
	github.com/c-bata/go-prompt v0.2.6
	github.com/chromedp/chromedp v0.13.1
	github.com/couchbase/gocb/v2 v2.9.4
	github.com/cucumber/godog v0.15.0
	github.com/dgraph-io/badger/v4 v4.6.0
	github.com/dgraph-io/dgo/v2 v2.2.0
	github.com/dnwe/otelsarama v0.0.0-20231212173111-631a0a53d5d4
	github.com/exaring/otelpgx v0.9.0
	github.com/geldata/gel-go v1.1.0
	github.com/go-chi/chi/v5 v5.2.1
	github.com/go-redis/cache/v9 v9.0.0
	github.com/go-sql-driver/mysql v1.9.0
	github.com/golang-migrate/migrate/v4 v4.18.2
	github.com/golang/glog v1.2.4
	github.com/google/cel-go v0.24.1
	github.com/google/uuid v1.6.0
	github.com/google/wire v0.6.0
	github.com/grafana/pyroscope-go v1.2.0
	github.com/grafana/pyroscope-go/godeltaprof v0.1.8
	github.com/grpc-ecosystem/go-grpc-middleware/providers/prometheus v1.0.1
	github.com/grpc-ecosystem/go-grpc-middleware/v2 v2.3.1
	github.com/heptiolabs/healthcheck v0.0.0-20211123025425-613501dd5deb
	github.com/jackc/pgx/v5 v5.7.2
	github.com/johejo/golang-migrate-extra v0.0.0-20211005021153-c17dd75f8b4a
	github.com/lib/pq v1.10.9
	github.com/mattn/go-sqlite3 v1.14.24
	github.com/minio/minio-go/v7 v7.0.87
	github.com/nats-io/nats.go v1.39.1
	github.com/neo4j/neo4j-go-driver/v5 v5.28.0
	github.com/ory/client-go v1.17.2
	github.com/ory/dockertest/v3 v3.11.0
	github.com/prometheus/client_golang v1.21.1
	github.com/prometheus/client_model v0.6.1
	github.com/pterm/pterm v0.12.80
	github.com/rabbitmq/amqp091-go v1.10.0
	github.com/redis/go-redis/v9 v9.7.1
	github.com/redis/rueidis v1.0.30-0.20240224222815-152800b84f6d
	github.com/redis/rueidis/rueidiscompat v1.0.30-0.20240224222815-152800b84f6d
	github.com/redis/rueidis/rueidisotel v1.0.30-0.20240224222815-152800b84f6d
	github.com/sasha-s/go-deadlock v0.3.5
	github.com/segmentio/encoding v0.4.1
	github.com/sirupsen/logrus v1.9.3
	github.com/sourcegraph/conc v0.3.0
	github.com/spf13/cobra v1.9.1
	github.com/spf13/pflag v1.0.6
	github.com/spf13/viper v1.19.0
	github.com/stretchr/testify v1.10.0
	github.com/syndtr/goleveldb v1.0.1-0.20220721030215-126854af5e6d
	github.com/uber-go/tally/v4 v4.1.16
	github.com/uptrace/go-clickhouse v0.3.1
	github.com/uptrace/go-clickhouse/chdebug v0.3.1
	github.com/uptrace/go-clickhouse/chotel v0.3.1
	github.com/uptrace/opentelemetry-go-extra/otellogrus v0.3.2
	github.com/uptrace/opentelemetry-go-extra/otelsql v0.3.2
	github.com/uptrace/opentelemetry-go-extra/otelzap v0.3.2
	go.etcd.io/etcd/client/v3 v3.5.19
	go.mongodb.org/mongo-driver/v2 v2.1.0
	go.opentelemetry.io/contrib/instrumentation/google.golang.org/grpc/otelgrpc v0.60.0
	go.opentelemetry.io/contrib/instrumentation/net/http/otelhttp v0.60.0
	go.opentelemetry.io/otel v1.35.0
	go.opentelemetry.io/otel/exporters/otlp/otlpmetric/otlpmetricgrpc v1.35.0
	go.opentelemetry.io/otel/exporters/otlp/otlptrace/otlptracegrpc v1.35.0
	go.opentelemetry.io/otel/exporters/prometheus v0.57.0
	go.opentelemetry.io/otel/log v0.11.0
	go.opentelemetry.io/otel/sdk v1.35.0
	go.opentelemetry.io/otel/sdk/metric v1.35.0
	go.opentelemetry.io/otel/trace v1.35.0
	go.temporal.io/sdk v1.33.0
	go.temporal.io/sdk/contrib/opentelemetry v0.6.0
	go.temporal.io/sdk/contrib/tally v0.2.0
	go.uber.org/atomic v1.11.0
	go.uber.org/automaxprocs v1.6.0
	go.uber.org/goleak v1.3.0
	go.uber.org/zap v1.27.0
	golang.org/x/sync v0.12.0
	google.golang.org/grpc v1.71.0
	google.golang.org/protobuf v1.36.5
	gopkg.in/yaml.v3 v3.0.1
)

require go.mongodb.org/mongo-driver v1.17.2 // indirect

require (
	atomicgo.dev/cursor v0.2.0 // indirect
	atomicgo.dev/keyboard v0.2.9 // indirect
	atomicgo.dev/schedule v0.1.0 // indirect
	cel.dev/expr v0.19.1 // indirect
	dario.cat/mergo v1.0.0 // indirect
	filippo.io/edwards25519 v1.1.0 // indirect
	github.com/Azure/go-ansiterm v0.0.0-20230124172434-306776ec8161 // indirect
	github.com/Masterminds/semver/v3 v3.3.0 // indirect
	github.com/Microsoft/go-winio v0.6.2 // indirect
	github.com/Nvveen/Gotty v0.0.0-20120604004816-cd527374f1e5 // indirect
	github.com/andybalholm/cascadia v1.3.3 // indirect
	github.com/antlr4-go/antlr/v4 v4.13.0 // indirect
	github.com/beorn7/perks v1.0.1 // indirect
	github.com/cenkalti/backoff/v4 v4.3.0 // indirect
	github.com/certifi/gocertifi v0.0.0-20210507211836-431795d63e8d // indirect
	github.com/cespare/xxhash/v2 v2.3.0 // indirect
	github.com/chromedp/cdproto v0.0.0-20250222051814-50c6cb17f10a // indirect
	github.com/chromedp/sysutil v1.1.0 // indirect
	github.com/codemodus/kace v0.5.1 // indirect
	github.com/containerd/console v1.0.4 // indirect
	github.com/containerd/continuity v0.4.3 // indirect
	github.com/coreos/go-semver v0.3.1 // indirect
	github.com/coreos/go-systemd/v22 v22.5.0 // indirect
	github.com/couchbase/gocbcore/v10 v10.5.4 // indirect
	github.com/couchbase/gocbcoreps v0.1.3 // indirect
	github.com/couchbase/goprotostellar v1.0.2 // indirect
	github.com/couchbaselabs/gocbconnstr/v2 v2.0.0-20240607131231-fb385523de28 // indirect
	github.com/cpuguy83/go-md2man/v2 v2.0.6 // indirect
	github.com/cucumber/gherkin/go/v26 v26.2.0 // indirect
	github.com/cucumber/messages/go/v21 v21.0.1 // indirect
	github.com/davecgh/go-spew v1.1.2-0.20180830191138-d8f796af33cc // indirect
	github.com/dgraph-io/ristretto/v2 v2.1.0 // indirect
	github.com/dgryski/go-rendezvous v0.0.0-20200823014737-9f7001d12a5f // indirect
	github.com/docker/cli v26.1.4+incompatible // indirect
	github.com/docker/docker v27.2.0+incompatible // indirect
	github.com/docker/go-connections v0.5.0 // indirect
	github.com/docker/go-units v0.5.0 // indirect
	github.com/dustin/go-humanize v1.0.1 // indirect
	github.com/eapache/go-resiliency v1.7.0 // indirect
	github.com/eapache/go-xerial-snappy v0.0.0-20230731223053-c322873962e3 // indirect
	github.com/eapache/queue v1.1.0 // indirect
	github.com/envoyproxy/protoc-gen-validate v1.2.1 // indirect
	github.com/facebookgo/clock v0.0.0-20150410010913-600d898af40a // indirect
	github.com/fatih/color v1.18.0 // indirect
	github.com/felixge/httpsnoop v1.0.4 // indirect
	github.com/fsnotify/fsnotify v1.8.0 // indirect
	github.com/go-ini/ini v1.67.0 // indirect
	github.com/go-json-experiment/json v0.0.0-20250211171154-1ae217ad3535 // indirect
	github.com/go-logr/logr v1.4.2 // indirect
	github.com/go-logr/stdr v1.2.2 // indirect
	github.com/gobwas/httphead v0.1.0 // indirect
	github.com/gobwas/pool v0.2.1 // indirect
	github.com/gobwas/ws v1.4.0 // indirect
	github.com/goccy/go-json v0.10.5 // indirect
	github.com/gofrs/uuid v4.4.0+incompatible // indirect
	github.com/gogo/protobuf v1.3.2 // indirect
	github.com/golang/mock v1.6.0 // indirect
	github.com/golang/protobuf v1.5.4 // indirect
	github.com/golang/snappy v0.0.5-0.20220116011046-fa5810519dcb // indirect
	github.com/google/flatbuffers v25.2.10+incompatible // indirect
	github.com/google/shlex v0.0.0-20191202100458-e7afc7fbc510 // indirect
	github.com/gookit/color v1.5.4 // indirect
	github.com/grpc-ecosystem/go-grpc-middleware v1.4.0 // indirect
	github.com/grpc-ecosystem/grpc-gateway/v2 v2.26.3 // indirect
	github.com/hashicorp/errwrap v1.1.0 // indirect
	github.com/hashicorp/go-immutable-radix v1.3.1 // indirect
	github.com/hashicorp/go-memdb v1.3.4 // indirect
	github.com/hashicorp/go-multierror v1.1.1 // indirect
	github.com/hashicorp/go-uuid v1.0.3 // indirect
	github.com/hashicorp/golang-lru v1.0.2 // indirect
	github.com/hashicorp/hcl v1.0.0 // indirect
	github.com/inconshreveable/mousetrap v1.1.0 // indirect
	github.com/jackc/pgerrcode v0.0.0-20220416144525-469b46aa5efa // indirect
	github.com/jackc/pgpassfile v1.0.0 // indirect
	github.com/jackc/pgservicefile v0.0.0-20240606120523-5a60cdf6a761 // indirect
	github.com/jackc/puddle/v2 v2.2.2 // indirect
	github.com/jcmturner/aescts/v2 v2.0.0 // indirect
	github.com/jcmturner/dnsutils/v2 v2.0.0 // indirect
	github.com/jcmturner/gofork v1.7.6 // indirect
	github.com/jcmturner/gokrb5/v8 v8.4.4 // indirect
	github.com/jcmturner/rpc/v2 v2.0.3 // indirect
	github.com/jinzhu/inflection v1.0.0 // indirect
	github.com/jzelinskie/stringz v0.0.3 // indirect
	github.com/klauspost/compress v1.18.0 // indirect
	github.com/klauspost/cpuid/v2 v2.2.9 // indirect
	github.com/lann/builder v0.0.0-20180802200727-47ae307949d0 // indirect
	github.com/lann/ps v0.0.0-20150810152359-62de8c46ede0 // indirect
	github.com/lithammer/fuzzysearch v1.1.8 // indirect
	github.com/magiconair/properties v1.8.7 // indirect
	github.com/mattn/go-colorable v0.1.13 // indirect
	github.com/mattn/go-isatty v0.0.20 // indirect
	github.com/mattn/go-runewidth v0.0.16 // indirect
	github.com/mattn/go-tty v0.0.4 // indirect
	github.com/minio/crc64nvme v1.0.1 // indirect
	github.com/minio/md5-simd v1.1.2 // indirect
	github.com/mitchellh/mapstructure v1.5.1-0.20220423185008-bf980b35cac4 // indirect
	github.com/moby/docker-image-spec v1.3.1 // indirect
	github.com/moby/sys/user v0.3.0 // indirect
	github.com/moby/term v0.5.0 // indirect
	github.com/montanaflynn/stats v0.7.1 // indirect
	github.com/munnerz/goautoneg v0.0.0-20191010083416-a7dc8b61c822 // indirect
	github.com/nats-io/nkeys v0.4.9 // indirect
	github.com/nats-io/nuid v1.0.1 // indirect
	github.com/nexus-rpc/sdk-go v0.3.0 // indirect
	github.com/onsi/ginkgo/v2 v2.23.0 // indirect
	github.com/onsi/gomega v1.36.2 // indirect
	github.com/opencontainers/go-digest v1.0.0 // indirect
	github.com/opencontainers/image-spec v1.1.0 // indirect
	github.com/opencontainers/runc v1.2.1 // indirect
	github.com/pborman/uuid v1.2.1 // indirect
	github.com/pelletier/go-toml/v2 v2.2.3 // indirect
	github.com/petermattis/goid v0.0.0-20240813172612-4fcff4a6cae7 // indirect
	github.com/pierrec/lz4/v4 v4.1.22 // indirect
	github.com/pkg/errors v0.9.1 // indirect
	github.com/pkg/term v1.2.0-beta.2 // indirect
	github.com/planetscale/vtprotobuf v0.6.1-0.20240319094008-0393e58bdf10 // indirect
	github.com/pmezard/go-difflib v1.0.1-0.20181226105442-5d4384ee4fb2 // indirect
	github.com/prometheus/common v0.62.0 // indirect
	github.com/prometheus/procfs v0.15.1 // indirect
	github.com/rcrowley/go-metrics v0.0.0-20201227073835-cf1acfcdf475 // indirect
	github.com/rivo/uniseg v0.4.7 // indirect
	github.com/robfig/cron v1.2.0 // indirect
	github.com/rs/xid v1.6.0 // indirect
	github.com/russross/blackfriday/v2 v2.1.0 // indirect
	github.com/sagikazarmark/locafero v0.6.0 // indirect
	github.com/sagikazarmark/slog-shim v0.1.0 // indirect
	github.com/samber/lo v1.49.0 // indirect
	github.com/segmentio/asm v1.2.0 // indirect
	github.com/sergi/go-diff v1.3.1 // indirect
	github.com/sigurn/crc16 v0.0.0-20211026045750-20ab5afb07e3 // indirect
	github.com/spf13/afero v1.11.0 // indirect
	github.com/spf13/cast v1.7.0 // indirect
	github.com/stoewer/go-strcase v1.3.0 // indirect
	github.com/stretchr/objx v0.5.2 // indirect
	github.com/subosito/gotenv v1.6.0 // indirect
	github.com/twmb/murmur3 v1.1.8 // indirect
	github.com/uptrace/opentelemetry-go-extra/otelutil v0.3.2 // indirect
	github.com/vmihailenco/go-tinylfu v0.2.2 // indirect
	github.com/vmihailenco/msgpack/v5 v5.3.5 // indirect
	github.com/vmihailenco/tagparser/v2 v2.0.0 // indirect
	github.com/xdg-go/pbkdf2 v1.0.0 // indirect
	github.com/xdg-go/scram v1.1.2 // indirect
	github.com/xdg-go/stringprep v1.0.4 // indirect
	github.com/xdg/scram v1.0.5 // indirect
	github.com/xdg/stringprep v1.0.3 // indirect
	github.com/xeipuuv/gojsonpointer v0.0.0-20190905194746-02993c407bfb // indirect
	github.com/xeipuuv/gojsonreference v0.0.0-20180127040603-bd5ef7bd5415 // indirect
	github.com/xeipuuv/gojsonschema v1.2.0 // indirect
	github.com/xo/terminfo v0.0.0-20220910002029-abceb7e1c41e // indirect
	github.com/youmark/pkcs8 v0.0.0-20240726163527-a2c0da244d78 // indirect
	github.com/yuin/gopher-lua v0.0.0-20210529063254-f4c35e4016d9 // indirect
	go.etcd.io/etcd/api/v3 v3.5.19 // indirect
	go.etcd.io/etcd/client/pkg/v3 v3.5.19 // indirect
	go.opentelemetry.io/auto/sdk v1.1.0 // indirect
	go.opentelemetry.io/otel/exporters/otlp/otlptrace v1.35.0 // indirect
	go.opentelemetry.io/otel/metric v1.35.0 // indirect
	go.opentelemetry.io/proto/otlp v1.5.0 // indirect
	go.temporal.io/api v1.45.0 // indirect
	go.uber.org/multierr v1.11.0 // indirect
	golang.org/x/crypto v0.36.0 // indirect
	golang.org/x/exp v0.0.0-20240909161429-701f63a606c0 // indirect
	golang.org/x/net v0.37.0 // indirect
	golang.org/x/oauth2 v0.27.0 // indirect
	golang.org/x/sys v0.31.0 // indirect
	golang.org/x/term v0.30.0 // indirect
	golang.org/x/text v0.23.0 // indirect
	golang.org/x/time v0.10.0 // indirect
	golang.org/x/tools v0.31.0 // indirect
	google.golang.org/genproto/googleapis/api v0.0.0-20250303144028-a0af3efb3deb // indirect
	google.golang.org/genproto/googleapis/rpc v0.0.0-20250303144028-a0af3efb3deb // indirect
	gopkg.in/DATA-DOG/go-sqlmock.v1 v1.3.0 // indirect
	gopkg.in/ini.v1 v1.67.0 // indirect
	gopkg.in/yaml.v2 v2.4.0 // indirect
)

replace (
	k8s.io/api => k8s.io/api v0.32.2
	k8s.io/apiextensions-apiserver => k8s.io/apiextensions-apiserver v0.32.2
	k8s.io/apimachinery => k8s.io/apimachinery v0.32.2
	k8s.io/apiserver => k8s.io/apiserver v0.32.2
	k8s.io/cli-runtime => k8s.io/cli-runtime v0.32.2
	k8s.io/client-go => k8s.io/client-go v0.32.2
	k8s.io/cloud-provider => k8s.io/cloud-provider v0.32.2
	k8s.io/cluster-bootstrap => k8s.io/cluster-bootstrap v0.32.2
	k8s.io/code-generator => k8s.io/code-generator v0.32.2
	k8s.io/component-base => k8s.io/component-base v0.32.2
	k8s.io/component-helpers => k8s.io/component-helpers v0.32.2
	k8s.io/controller-manager => k8s.io/controller-manager v0.32.2
	k8s.io/cri-api => k8s.io/cri-api v0.32.2
	k8s.io/cri-client => k8s.io/cri-client v0.32.2
	k8s.io/csi-translation-lib => k8s.io/csi-translation-lib v0.32.2
	k8s.io/dynamic-resource-allocation => k8s.io/dynamic-resource-allocation v0.32.2
	k8s.io/endpointslice => k8s.io/endpointslice v0.32.2
	k8s.io/kms => k8s.io/kms v0.32.2
	k8s.io/kube-aggregator => k8s.io/kube-aggregator v0.32.2
	k8s.io/kube-controller-manager => k8s.io/kube-controller-manager v0.32.2
	k8s.io/kube-proxy => k8s.io/kube-proxy v0.32.2
	k8s.io/kube-scheduler => k8s.io/kube-scheduler v0.32.2
	k8s.io/kubectl => k8s.io/kubectl v0.32.2
	k8s.io/kubelet => k8s.io/kubelet v0.32.2
	k8s.io/legacy-cloud-providers => k8s.io/legacy-cloud-providers v0.30.10
	k8s.io/metrics => k8s.io/metrics v0.32.2
	k8s.io/mount-utils => k8s.io/mount-utils v0.32.2
	k8s.io/pod-security-admission => k8s.io/pod-security-admission v0.32.2
	k8s.io/sample-apiserver => k8s.io/sample-apiserver v0.32.2
)
