module github.com/shortlink-org/shortlink/docs/ADR/decisions/proof/ADR-0007

go 1.24.1

require (
	github.com/bytedance/sonic v1.13.0
	github.com/google/uuid v1.6.0
	github.com/segmentio/encoding v0.4.1
	github.com/stretchr/testify v1.10.0
)

require (
	github.com/bytedance/sonic/loader v0.2.2 // indirect
	github.com/cloudwego/base64x v0.1.5 // indirect
	github.com/davecgh/go-spew v1.1.2-0.20180830191138-d8f796af33cc // indirect
	github.com/klauspost/cpuid/v2 v2.2.9 // indirect
	github.com/kr/pretty v0.3.1 // indirect
	github.com/pmezard/go-difflib v1.0.1-0.20181226105442-5d4384ee4fb2 // indirect
	github.com/rogpeppe/go-internal v1.13.1 // indirect
	github.com/segmentio/asm v1.2.0 // indirect
	github.com/twitchyliquid64/golang-asm v0.15.1 // indirect
	golang.org/x/arch v0.10.0 // indirect
	golang.org/x/sys v0.31.0 // indirect
	gopkg.in/check.v1 v1.0.0-20201130134442-10cb98267c6c // indirect
	gopkg.in/yaml.v3 v3.0.1 // indirect
)
