module github.com/shortlink-org/shortlink/boundaries/shop/oms

go 1.24.1

require (
	github.com/authzed/authzed-go v1.3.0
	github.com/google/uuid v1.6.0
	github.com/google/wire v0.6.0
	github.com/shopspring/decimal v1.4.0
	github.com/spf13/viper v1.19.0
	github.com/stretchr/testify v1.10.0
	go.opentelemetry.io/otel/trace v1.35.0
	go.temporal.io/sdk v1.33.0
	google.golang.org/grpc v1.71.0
	google.golang.org/protobuf v1.36.5
)

require (
	github.com/cenkalti/backoff/v4 v4.3.0 // indirect
	github.com/davecgh/go-spew v1.1.2-0.20180830191138-d8f796af33cc // indirect
	github.com/envoyproxy/protoc-gen-validate v1.2.1 // indirect
	github.com/facebookgo/clock v0.0.0-20150410010913-600d898af40a // indirect
	github.com/fsnotify/fsnotify v1.8.0 // indirect
	github.com/gogo/protobuf v1.3.2 // indirect
	github.com/golang/mock v1.6.0 // indirect
	github.com/grpc-ecosystem/go-grpc-middleware v1.4.0 // indirect
	github.com/grpc-ecosystem/grpc-gateway/v2 v2.26.3 // indirect
	github.com/hashicorp/hcl v1.0.0 // indirect
	github.com/jzelinskie/stringz v0.0.3 // indirect
	github.com/magiconair/properties v1.8.7 // indirect
	github.com/mitchellh/mapstructure v1.5.1-0.20220423185008-bf980b35cac4 // indirect
	github.com/nexus-rpc/sdk-go v0.3.0 // indirect
	github.com/pborman/uuid v1.2.1 // indirect
	github.com/pelletier/go-toml/v2 v2.2.3 // indirect
	github.com/planetscale/vtprotobuf v0.6.1-0.20240319094008-0393e58bdf10 // indirect
	github.com/pmezard/go-difflib v1.0.1-0.20181226105442-5d4384ee4fb2 // indirect
	github.com/robfig/cron v1.2.0 // indirect
	github.com/sagikazarmark/locafero v0.6.0 // indirect
	github.com/sagikazarmark/slog-shim v0.1.0 // indirect
	github.com/samber/lo v1.49.0 // indirect
	github.com/sourcegraph/conc v0.3.0 // indirect
	github.com/spf13/afero v1.11.0 // indirect
	github.com/spf13/cast v1.7.0 // indirect
	github.com/spf13/pflag v1.0.6 // indirect
	github.com/stretchr/objx v0.5.2 // indirect
	github.com/subosito/gotenv v1.6.0 // indirect
	go.opentelemetry.io/otel v1.35.0 // indirect
	go.opentelemetry.io/otel/sdk/metric v1.35.0 // indirect
	go.temporal.io/api v1.45.0 // indirect
	go.uber.org/multierr v1.11.0 // indirect
	golang.org/x/exp v0.0.0-20240909161429-701f63a606c0 // indirect
	golang.org/x/net v0.37.0 // indirect
	golang.org/x/sync v0.12.0 // indirect
	golang.org/x/sys v0.31.0 // indirect
	golang.org/x/text v0.23.0 // indirect
	golang.org/x/time v0.10.0 // indirect
	google.golang.org/genproto/googleapis/api v0.0.0-20250303144028-a0af3efb3deb // indirect
	google.golang.org/genproto/googleapis/rpc v0.0.0-20250303144028-a0af3efb3deb // indirect
	gopkg.in/ini.v1 v1.67.0 // indirect
	gopkg.in/yaml.v3 v3.0.1 // indirect
)
