module github.com/shortlink-org/shortlink/boundaries/shortdb/shortdb-operator

go 1.24.1

require (
	github.com/onsi/ginkgo/v2 v2.23.0
	github.com/onsi/gomega v1.36.2
	k8s.io/api v0.32.2
	k8s.io/apimachinery v0.32.2
	k8s.io/client-go v0.32.2
	sigs.k8s.io/controller-runtime v0.20.2
)

require (
	github.com/beorn7/perks v1.0.1 // indirect
	github.com/cespare/xxhash/v2 v2.3.0 // indirect
	github.com/davecgh/go-spew v1.1.2-0.20180830191138-d8f796af33cc // indirect
	github.com/emicklei/go-restful/v3 v3.11.0 // indirect
	github.com/evanphx/json-patch/v5 v5.9.11 // indirect
	github.com/fsnotify/fsnotify v1.8.0 // indirect
	github.com/fxamacker/cbor/v2 v2.7.0 // indirect
	github.com/go-logr/logr v1.4.2 // indirect
	github.com/go-logr/zapr v1.3.0 // indirect
	github.com/go-openapi/jsonpointer v0.21.0 // indirect
	github.com/go-openapi/jsonreference v0.20.2 // indirect
	github.com/go-openapi/swag v0.23.0 // indirect
	github.com/go-task/slim-sprig/v3 v3.0.0 // indirect
	github.com/gogo/protobuf v1.3.2 // indirect
	github.com/golang/protobuf v1.5.4 // indirect
	github.com/google/btree v1.1.3 // indirect
	github.com/google/gnostic-models v0.6.8 // indirect
	github.com/google/go-cmp v0.7.0 // indirect
	github.com/google/gofuzz v1.2.0 // indirect
	github.com/google/pprof v0.0.0-20241210010833-40e02aabc2ad // indirect
	github.com/google/uuid v1.6.0 // indirect
	github.com/josharian/intern v1.0.0 // indirect
	github.com/json-iterator/go v1.1.12 // indirect
	github.com/klauspost/compress v1.18.0 // indirect
	github.com/mailru/easyjson v0.9.0 // indirect
	github.com/modern-go/concurrent v0.0.0-20180306012644-bacd9c7ef1dd // indirect
	github.com/modern-go/reflect2 v1.0.2 // indirect
	github.com/munnerz/goautoneg v0.0.0-20191010083416-a7dc8b61c822 // indirect
	github.com/pkg/errors v0.9.1 // indirect
	github.com/prometheus/client_golang v1.21.1 // indirect
	github.com/prometheus/client_model v0.6.1 // indirect
	github.com/prometheus/common v0.62.0 // indirect
	github.com/prometheus/procfs v0.15.1 // indirect
	github.com/rogpeppe/go-internal v1.13.1 // indirect
	github.com/spf13/pflag v1.0.6 // indirect
	github.com/x448/float16 v0.8.4 // indirect
	go.uber.org/multierr v1.11.0 // indirect
	go.uber.org/zap v1.27.0 // indirect
	golang.org/x/net v0.37.0 // indirect
	golang.org/x/oauth2 v0.27.0 // indirect
	golang.org/x/sync v0.12.0 // indirect
	golang.org/x/sys v0.31.0 // indirect
	golang.org/x/term v0.30.0 // indirect
	golang.org/x/text v0.23.0 // indirect
	golang.org/x/time v0.10.0 // indirect
	golang.org/x/tools v0.31.0 // indirect
	gomodules.xyz/jsonpatch/v2 v2.4.0 // indirect
	google.golang.org/protobuf v1.36.5 // indirect
	gopkg.in/evanphx/json-patch.v4 v4.12.0 // indirect
	gopkg.in/inf.v0 v0.9.1 // indirect
	gopkg.in/yaml.v3 v3.0.1 // indirect
	k8s.io/apiextensions-apiserver v0.32.1 // indirect
	k8s.io/klog/v2 v2.130.1 // indirect
	k8s.io/kube-openapi v0.0.0-20241105132330-32ad38e42d3f // indirect
	k8s.io/utils v0.0.0-20241104100929-3ea5e8cea738 // indirect
	sigs.k8s.io/json v0.0.0-20241010143419-9aa6b5e7a4b3 // indirect
	sigs.k8s.io/structured-merge-diff/v4 v4.4.2 // indirect
	sigs.k8s.io/yaml v1.4.0 // indirect
)
