module github.com/shortlink-org/shortlink/boundaries/notification/notify

go 1.24.1

require (
	github.com/go-telegram-bot-api/telegram-bot-api/v5 v5.5.1
	github.com/google/wire v0.6.0
	github.com/segmentio/encoding v0.4.1
	github.com/spf13/viper v1.19.0
	go.opentelemetry.io/otel/trace v1.35.0
	golang.org/x/sync v0.12.0
)

require (
	github.com/fsnotify/fsnotify v1.8.0 // indirect
	github.com/hashicorp/hcl v1.0.0 // indirect
	github.com/magiconair/properties v1.8.7 // indirect
	github.com/mitchellh/mapstructure v1.5.1-0.20220423185008-bf980b35cac4 // indirect
	github.com/pelletier/go-toml/v2 v2.2.3 // indirect
	github.com/rogpeppe/go-internal v1.13.1 // indirect
	github.com/sagikazarmark/locafero v0.6.0 // indirect
	github.com/sagikazarmark/slog-shim v0.1.0 // indirect
	github.com/segmentio/asm v1.2.0 // indirect
	github.com/sourcegraph/conc v0.3.0 // indirect
	github.com/spf13/afero v1.11.0 // indirect
	github.com/spf13/cast v1.7.0 // indirect
	github.com/spf13/pflag v1.0.6 // indirect
	github.com/subosito/gotenv v1.6.0 // indirect
	go.opentelemetry.io/otel v1.35.0 // indirect
	go.uber.org/multierr v1.11.0 // indirect
	golang.org/x/exp v0.0.0-20240909161429-701f63a606c0 // indirect
	golang.org/x/sys v0.31.0 // indirect
	golang.org/x/text v0.23.0 // indirect
	gopkg.in/check.v1 v1.0.0-20201130134442-10cb98267c6c // indirect
	gopkg.in/ini.v1 v1.67.0 // indirect
	gopkg.in/yaml.v3 v3.0.1 // indirect
)
