module github.com/shortlink-org/shortlink/boundaries/billing/wallet

go 1.24.1

require (
	github.com/ethereum/go-ethereum v1.15.5
	github.com/google/wire v0.6.0
	github.com/spf13/viper v1.19.0
	github.com/stretchr/testify v1.10.0
)

require (
	github.com/Microsoft/go-winio v0.6.2 // indirect
	github.com/StackExchange/wmi v1.2.1 // indirect
	github.com/bits-and-blooms/bitset v1.17.0 // indirect
	github.com/consensys/bavard v0.1.22 // indirect
	github.com/consensys/gnark-crypto v0.14.0 // indirect
	github.com/cpuguy83/go-md2man/v2 v2.0.6 // indirect
	github.com/crate-crypto/go-ipa v0.0.0-20240724233137-53bbb0ceb27a // indirect
	github.com/crate-crypto/go-kzg-4844 v1.1.0 // indirect
	github.com/davecgh/go-spew v1.1.2-0.20180830191138-d8f796af33cc // indirect
	github.com/deckarep/golang-set/v2 v2.6.0 // indirect
	github.com/decred/dcrd/dcrec/secp256k1/v4 v4.2.0 // indirect
	github.com/ethereum/c-kzg-4844 v1.0.0 // indirect
	github.com/ethereum/go-verkle v0.2.2 // indirect
	github.com/fsnotify/fsnotify v1.8.0 // indirect
	github.com/go-ole/go-ole v1.3.0 // indirect
	github.com/gofrs/flock v0.12.1 // indirect
	github.com/google/go-cmp v0.7.0 // indirect
	github.com/google/uuid v1.6.0 // indirect
	github.com/gorilla/websocket v1.5.3 // indirect
	github.com/hashicorp/hcl v1.0.0 // indirect
	github.com/holiman/uint256 v1.3.2 // indirect
	github.com/klauspost/compress v1.18.0 // indirect
	github.com/magiconair/properties v1.8.7 // indirect
	github.com/mattn/go-runewidth v0.0.16 // indirect
	github.com/mitchellh/mapstructure v1.5.1-0.20220423185008-bf980b35cac4 // indirect
	github.com/mmcloughlin/addchain v0.4.0 // indirect
	github.com/pelletier/go-toml/v2 v2.2.3 // indirect
	github.com/pmezard/go-difflib v1.0.1-0.20181226105442-5d4384ee4fb2 // indirect
	github.com/prometheus/client_golang v1.21.1 // indirect
	github.com/rivo/uniseg v0.4.7 // indirect
	github.com/rogpeppe/go-internal v1.13.1 // indirect
	github.com/rs/cors v1.11.0 // indirect
	github.com/sagikazarmark/locafero v0.6.0 // indirect
	github.com/sagikazarmark/slog-shim v0.1.0 // indirect
	github.com/shirou/gopsutil v3.21.4-0.20210419000835-c7a38de76ee5+incompatible // indirect
	github.com/sourcegraph/conc v0.3.0 // indirect
	github.com/spf13/afero v1.11.0 // indirect
	github.com/spf13/cast v1.7.0 // indirect
	github.com/spf13/pflag v1.0.6 // indirect
	github.com/subosito/gotenv v1.6.0 // indirect
	github.com/supranational/blst v0.3.14 // indirect
	github.com/syndtr/goleveldb v1.0.1-0.20220721030215-126854af5e6d // indirect
	github.com/tklauser/go-sysconf v0.3.12 // indirect
	github.com/tklauser/numcpus v0.6.1 // indirect
	go.uber.org/multierr v1.11.0 // indirect
	golang.org/x/crypto v0.36.0 // indirect
	golang.org/x/exp v0.0.0-20240909161429-701f63a606c0 // indirect
	golang.org/x/sync v0.12.0 // indirect
	golang.org/x/sys v0.31.0 // indirect
	golang.org/x/text v0.23.0 // indirect
	golang.org/x/time v0.10.0 // indirect
	google.golang.org/protobuf v1.36.5 // indirect
	gopkg.in/ini.v1 v1.67.0 // indirect
	gopkg.in/yaml.v3 v3.0.1 // indirect
	rsc.io/tmplfunc v0.0.3 // indirect
)
