module github.com/shortlink-org/shortlink/boundaries/shop/pricer

go 1.24.1

require (
	github.com/google/uuid v1.6.0
	github.com/google/wire v0.6.0
	github.com/open-policy-agent/opa v1.2.0
	github.com/shopspring/decimal v1.4.0
	github.com/spf13/viper v1.19.0
	go.opentelemetry.io/otel/trace v1.35.0
)

require (
	github.com/agnivade/levenshtein v1.2.1 // indirect
	github.com/beorn7/perks v1.0.1 // indirect
	github.com/cespare/xxhash/v2 v2.3.0 // indirect
	github.com/dgraph-io/badger/v4 v4.6.0 // indirect
	github.com/fsnotify/fsnotify v1.8.0 // indirect
	github.com/go-ini/ini v1.67.0 // indirect
	github.com/go-logr/logr v1.4.2 // indirect
	github.com/go-logr/stdr v1.2.2 // indirect
	github.com/gobwas/glob v0.2.3 // indirect
	github.com/gorilla/mux v1.8.1 // indirect
	github.com/grpc-ecosystem/grpc-gateway/v2 v2.26.3 // indirect
	github.com/hashicorp/hcl v1.0.0 // indirect
	github.com/klauspost/compress v1.18.0 // indirect
	github.com/magiconair/properties v1.8.7 // indirect
	github.com/mitchellh/mapstructure v1.5.1-0.20220423185008-bf980b35cac4 // indirect
	github.com/munnerz/goautoneg v0.0.0-20191010083416-a7dc8b61c822 // indirect
	github.com/pelletier/go-toml/v2 v2.2.3 // indirect
	github.com/prometheus/client_golang v1.21.1 // indirect
	github.com/prometheus/client_model v0.6.1 // indirect
	github.com/prometheus/common v0.62.0 // indirect
	github.com/prometheus/procfs v0.15.1 // indirect
	github.com/rcrowley/go-metrics v0.0.0-20201227073835-cf1acfcdf475 // indirect
	github.com/sagikazarmark/locafero v0.6.0 // indirect
	github.com/sagikazarmark/slog-shim v0.1.0 // indirect
	github.com/sirupsen/logrus v1.9.3 // indirect
	github.com/sourcegraph/conc v0.3.0 // indirect
	github.com/spf13/afero v1.11.0 // indirect
	github.com/spf13/cast v1.7.0 // indirect
	github.com/spf13/pflag v1.0.6 // indirect
	github.com/subosito/gotenv v1.6.0 // indirect
	github.com/tchap/go-patricia/v2 v2.3.2 // indirect
	github.com/xeipuuv/gojsonpointer v0.0.0-20190905194746-02993c407bfb // indirect
	github.com/xeipuuv/gojsonreference v0.0.0-20180127040603-bd5ef7bd5415 // indirect
	github.com/yashtewari/glob-intersection v0.2.0 // indirect
	go.opentelemetry.io/auto/sdk v1.1.0 // indirect
	go.opentelemetry.io/contrib/instrumentation/net/http/otelhttp v0.60.0 // indirect
	go.opentelemetry.io/otel v1.35.0 // indirect
	go.opentelemetry.io/otel/exporters/otlp/otlptrace v1.35.0 // indirect
	go.opentelemetry.io/otel/exporters/otlp/otlptrace/otlptracegrpc v1.35.0 // indirect
	go.opentelemetry.io/otel/metric v1.35.0 // indirect
	go.opentelemetry.io/otel/sdk v1.35.0 // indirect
	go.uber.org/multierr v1.11.0 // indirect
	golang.org/x/exp v0.0.0-20240909161429-701f63a606c0 // indirect
	golang.org/x/net v0.37.0 // indirect
	golang.org/x/sys v0.31.0 // indirect
	golang.org/x/text v0.23.0 // indirect
	golang.org/x/tools v0.31.0 // indirect
	google.golang.org/genproto/googleapis/rpc v0.0.0-20250303144028-a0af3efb3deb // indirect
	google.golang.org/grpc v1.71.0 // indirect
	google.golang.org/protobuf v1.36.5 // indirect
	gopkg.in/ini.v1 v1.67.0 // indirect
	gopkg.in/yaml.v3 v3.0.1 // indirect
	sigs.k8s.io/yaml v1.4.0 // indirect
)
