module github.com/shortlink-org/shortlink/boundaries/link/supplies/knative/kafka-to-elasticsearch

go 1.24.1

require (
	github.com/cloudevents/sdk-go/observability/opencensus/v2 v2.15.2
	github.com/cloudevents/sdk-go/v2 v2.15.2
	github.com/elastic/go-elasticsearch/v8 v8.17.1
)

require (
	github.com/davecgh/go-spew v1.1.2-0.20180830191138-d8f796af33cc // indirect
	github.com/elastic/elastic-transport-go/v8 v8.6.1 // indirect
	github.com/go-logr/logr v1.4.2 // indirect
	github.com/go-logr/stdr v1.2.2 // indirect
	github.com/golang/groupcache v0.0.0-20210331224755-41bb18bfe9da // indirect
	github.com/google/uuid v1.6.0 // indirect
	github.com/json-iterator/go v1.1.12 // indirect
	github.com/modern-go/concurrent v0.0.0-20180306012644-bacd9c7ef1dd // indirect
	github.com/modern-go/reflect2 v1.0.2 // indirect
	github.com/pmezard/go-difflib v1.0.1-0.20181226105442-5d4384ee4fb2 // indirect
	go.opencensus.io v0.24.0 // indirect
	go.opentelemetry.io/auto/sdk v1.1.0 // indirect
	go.opentelemetry.io/otel v1.35.0 // indirect
	go.opentelemetry.io/otel/metric v1.35.0 // indirect
	go.opentelemetry.io/otel/sdk v1.35.0 // indirect
	go.opentelemetry.io/otel/trace v1.35.0 // indirect
	go.uber.org/multierr v1.11.0 // indirect
	go.uber.org/zap v1.27.0 // indirect
	golang.org/x/net v0.37.0 // indirect
	golang.org/x/time v0.10.0 // indirect
)
