module github.com/shortlink-org/shortlink/boundaries/link/link

go 1.24.1

require (
	github.com/Masterminds/squirrel v1.5.5-0.20240227163215-1ded5784535d
	github.com/authzed/authzed-go v1.3.0
	github.com/dgraph-io/badger/v4 v4.6.0
	github.com/dgraph-io/dgo/v2 v2.2.0
	github.com/go-redis/cache/v9 v9.0.0
	github.com/golang-migrate/migrate/v4 v4.18.2
	github.com/google/uuid v1.6.0
	github.com/google/wire v0.6.0
	github.com/jackc/pgx/v5 v5.7.2
	github.com/lib/pq v1.10.9
	github.com/mattn/go-sqlite3 v1.14.24
	github.com/ory/dockertest/v3 v3.11.0
	github.com/prometheus/client_golang v1.21.1
	github.com/redis/rueidis v1.0.30-0.20240224222815-152800b84f6d
	github.com/segmentio/encoding v0.4.1
	github.com/spf13/viper v1.19.0
	github.com/stretchr/testify v1.10.0
	github.com/syndtr/goleveldb v1.0.1-0.20220721030215-126854af5e6d
	go.mongodb.org/mongo-driver/v2 v2.1.0
	go.opentelemetry.io/otel/trace v1.35.0
	go.uber.org/atomic v1.11.0
	go.uber.org/goleak v1.3.0
	google.golang.org/grpc v1.71.0
	google.golang.org/protobuf v1.36.5
)

require (
	dario.cat/mergo v1.0.0 // indirect
	github.com/Azure/go-ansiterm v0.0.0-20230124172434-306776ec8161 // indirect
	github.com/Microsoft/go-winio v0.6.2 // indirect
	github.com/Nvveen/Gotty v0.0.0-20120604004816-cd527374f1e5 // indirect
	github.com/beorn7/perks v1.0.1 // indirect
	github.com/cenkalti/backoff/v4 v4.3.0 // indirect
	github.com/cespare/xxhash/v2 v2.3.0 // indirect
	github.com/containerd/continuity v0.4.3 // indirect
	github.com/davecgh/go-spew v1.1.2-0.20180830191138-d8f796af33cc // indirect
	github.com/dgraph-io/ristretto/v2 v2.1.0 // indirect
	github.com/dgryski/go-rendezvous v0.0.0-20200823014737-9f7001d12a5f // indirect
	github.com/docker/cli v26.1.4+incompatible // indirect
	github.com/docker/docker v27.2.0+incompatible // indirect
	github.com/docker/go-connections v0.5.0 // indirect
	github.com/docker/go-units v0.5.0 // indirect
	github.com/dustin/go-humanize v1.0.1 // indirect
	github.com/envoyproxy/protoc-gen-validate v1.2.1 // indirect
	github.com/fsnotify/fsnotify v1.8.0 // indirect
	github.com/go-logr/logr v1.4.2 // indirect
	github.com/go-logr/stdr v1.2.2 // indirect
	github.com/go-sql-driver/mysql v1.9.0 // indirect
	github.com/gogo/protobuf v1.3.2 // indirect
	github.com/golang/protobuf v1.5.4 // indirect
	github.com/golang/snappy v0.0.5-0.20220116011046-fa5810519dcb // indirect
	github.com/google/flatbuffers v25.2.10+incompatible // indirect
	github.com/google/shlex v0.0.0-20191202100458-e7afc7fbc510 // indirect
	github.com/grpc-ecosystem/grpc-gateway/v2 v2.26.3 // indirect
	github.com/hashicorp/errwrap v1.1.0 // indirect
	github.com/hashicorp/go-multierror v1.1.1 // indirect
	github.com/hashicorp/hcl v1.0.0 // indirect
	github.com/jackc/pgpassfile v1.0.0 // indirect
	github.com/jackc/pgservicefile v0.0.0-20240606120523-5a60cdf6a761 // indirect
	github.com/jackc/puddle/v2 v2.2.2 // indirect
	github.com/jzelinskie/stringz v0.0.3 // indirect
	github.com/klauspost/compress v1.18.0 // indirect
	github.com/lann/builder v0.0.0-20180802200727-47ae307949d0 // indirect
	github.com/lann/ps v0.0.0-20150810152359-62de8c46ede0 // indirect
	github.com/magiconair/properties v1.8.7 // indirect
	github.com/mitchellh/mapstructure v1.5.1-0.20220423185008-bf980b35cac4 // indirect
	github.com/moby/docker-image-spec v1.3.1 // indirect
	github.com/moby/sys/user v0.3.0 // indirect
	github.com/moby/term v0.5.0 // indirect
	github.com/montanaflynn/stats v0.7.1 // indirect
	github.com/munnerz/goautoneg v0.0.0-20191010083416-a7dc8b61c822 // indirect
	github.com/onsi/gomega v1.36.2 // indirect
	github.com/opencontainers/go-digest v1.0.0 // indirect
	github.com/opencontainers/image-spec v1.1.0 // indirect
	github.com/opencontainers/runc v1.2.1 // indirect
	github.com/pelletier/go-toml/v2 v2.2.3 // indirect
	github.com/pkg/errors v0.9.1 // indirect
	github.com/planetscale/vtprotobuf v0.6.1-0.20240319094008-0393e58bdf10 // indirect
	github.com/pmezard/go-difflib v1.0.1-0.20181226105442-5d4384ee4fb2 // indirect
	github.com/prometheus/client_model v0.6.1 // indirect
	github.com/prometheus/common v0.62.0 // indirect
	github.com/prometheus/procfs v0.15.1 // indirect
	github.com/redis/go-redis/v9 v9.7.1 // indirect
	github.com/sagikazarmark/locafero v0.6.0 // indirect
	github.com/sagikazarmark/slog-shim v0.1.0 // indirect
	github.com/samber/lo v1.49.0 // indirect
	github.com/segmentio/asm v1.2.0 // indirect
	github.com/sirupsen/logrus v1.9.3 // indirect
	github.com/sourcegraph/conc v0.3.0 // indirect
	github.com/spf13/afero v1.11.0 // indirect
	github.com/spf13/cast v1.7.0 // indirect
	github.com/spf13/pflag v1.0.6 // indirect
	github.com/subosito/gotenv v1.6.0 // indirect
	github.com/vmihailenco/go-tinylfu v0.2.2 // indirect
	github.com/vmihailenco/msgpack/v5 v5.3.5 // indirect
	github.com/vmihailenco/tagparser/v2 v2.0.0 // indirect
	github.com/xdg-go/pbkdf2 v1.0.0 // indirect
	github.com/xdg-go/scram v1.1.2 // indirect
	github.com/xdg-go/stringprep v1.0.4 // indirect
	github.com/xeipuuv/gojsonpointer v0.0.0-20190905194746-02993c407bfb // indirect
	github.com/xeipuuv/gojsonreference v0.0.0-20180127040603-bd5ef7bd5415 // indirect
	github.com/xeipuuv/gojsonschema v1.2.0 // indirect
	github.com/youmark/pkcs8 v0.0.0-20240726163527-a2c0da244d78 // indirect
	go.mongodb.org/mongo-driver v1.17.2 // indirect
	go.opentelemetry.io/auto/sdk v1.1.0 // indirect
	go.opentelemetry.io/contrib/instrumentation/net/http/otelhttp v0.60.0 // indirect
	go.opentelemetry.io/otel v1.35.0 // indirect
	go.opentelemetry.io/otel/metric v1.35.0 // indirect
	go.opentelemetry.io/otel/sdk/metric v1.35.0 // indirect
	go.uber.org/multierr v1.11.0 // indirect
	golang.org/x/crypto v0.36.0 // indirect
	golang.org/x/exp v0.0.0-20240909161429-701f63a606c0 // indirect
	golang.org/x/net v0.37.0 // indirect
	golang.org/x/sync v0.12.0 // indirect
	golang.org/x/sys v0.31.0 // indirect
	golang.org/x/text v0.23.0 // indirect
	google.golang.org/genproto/googleapis/api v0.0.0-20250303144028-a0af3efb3deb // indirect
	google.golang.org/genproto/googleapis/rpc v0.0.0-20250303144028-a0af3efb3deb // indirect
	gopkg.in/ini.v1 v1.67.0 // indirect
	gopkg.in/yaml.v2 v2.4.0 // indirect
	gopkg.in/yaml.v3 v3.0.1 // indirect
)
