module github.com/shortlink-org/shortlink/boundaries/shop/feed

go 1.24.1

require (
	github.com/google/cel-go v0.24.1
	github.com/shopspring/decimal v1.4.0
	github.com/stretchr/testify v1.10.0
	gopkg.in/yaml.v2 v2.4.0
)

require (
	cel.dev/expr v0.19.1 // indirect
	github.com/antlr4-go/antlr/v4 v4.13.0 // indirect
	github.com/davecgh/go-spew v1.1.2-0.20180830191138-d8f796af33cc // indirect
	github.com/google/go-cmp v0.7.0 // indirect
	github.com/kr/pretty v0.3.1 // indirect
	github.com/pmezard/go-difflib v1.0.1-0.20181226105442-5d4384ee4fb2 // indirect
	github.com/rogpeppe/go-internal v1.13.1 // indirect
	github.com/stoewer/go-strcase v1.3.0 // indirect
	golang.org/x/exp v0.0.0-20240909161429-701f63a606c0 // indirect
	golang.org/x/text v0.23.0 // indirect
	google.golang.org/genproto/googleapis/api v0.0.0-20250303144028-a0af3efb3deb // indirect
	google.golang.org/genproto/googleapis/rpc v0.0.0-20250303144028-a0af3efb3deb // indirect
	google.golang.org/protobuf v1.36.5 // indirect
	gopkg.in/check.v1 v1.0.0-20201130134442-10cb98267c6c // indirect
	gopkg.in/yaml.v3 v3.0.1 // indirect
)
