module github.com/shortlink-org/shortlink/boundaries/link/bff

go 1.24.1

require (
	buf.build/gen/go/shortlink-org/shortlink-link-link/grpc/go v1.5.1-20240420204150-bbba30c24796.2
	buf.build/gen/go/shortlink-org/shortlink-link-link/protocolbuffers/go v1.36.5-20240420204150-bbba30c24796.1
	github.com/go-chi/chi/v5 v5.2.1
	github.com/go-chi/cors v1.2.1
	github.com/go-chi/render v1.0.3
	github.com/google/wire v0.6.0
	github.com/oapi-codegen/runtime v1.1.1
	github.com/riandyrn/otelchi v0.12.1
	github.com/segmentio/encoding v0.4.1
	github.com/spf13/viper v1.19.0
	go.opentelemetry.io/otel/trace v1.35.0
	golang.org/x/sync v0.12.0
	golang.org/x/text v0.23.0
	google.golang.org/grpc v1.71.0
	google.golang.org/protobuf v1.36.5
)

require (
	github.com/ajg/form v1.5.1 // indirect
	github.com/apapsch/go-jsonmerge/v2 v2.0.0 // indirect
	github.com/felixge/httpsnoop v1.0.4 // indirect
	github.com/fsnotify/fsnotify v1.8.0 // indirect
	github.com/go-logr/logr v1.4.2 // indirect
	github.com/go-logr/stdr v1.2.2 // indirect
	github.com/google/uuid v1.6.0 // indirect
	github.com/hashicorp/hcl v1.0.0 // indirect
	github.com/magiconair/properties v1.8.7 // indirect
	github.com/mitchellh/mapstructure v1.5.1-0.20220423185008-bf980b35cac4 // indirect
	github.com/pelletier/go-toml/v2 v2.2.3 // indirect
	github.com/sagikazarmark/locafero v0.6.0 // indirect
	github.com/sagikazarmark/slog-shim v0.1.0 // indirect
	github.com/segmentio/asm v1.2.0 // indirect
	github.com/sourcegraph/conc v0.3.0 // indirect
	github.com/spf13/afero v1.11.0 // indirect
	github.com/spf13/cast v1.7.0 // indirect
	github.com/spf13/pflag v1.0.6 // indirect
	github.com/subosito/gotenv v1.6.0 // indirect
	go.opentelemetry.io/auto/sdk v1.1.0 // indirect
	go.opentelemetry.io/otel v1.35.0 // indirect
	go.opentelemetry.io/otel/metric v1.35.0 // indirect
	go.opentelemetry.io/otel/sdk/metric v1.35.0 // indirect
	go.uber.org/multierr v1.11.0 // indirect
	golang.org/x/exp v0.0.0-20240909161429-701f63a606c0 // indirect
	golang.org/x/net v0.37.0 // indirect
	golang.org/x/sys v0.31.0 // indirect
	google.golang.org/genproto/googleapis/rpc v0.0.0-20250303144028-a0af3efb3deb // indirect
	gopkg.in/ini.v1 v1.67.0 // indirect
	gopkg.in/yaml.v3 v3.0.1 // indirect
)
