module github.com/shortlink-org/shortlink/poc/xa/example

go 1.24.1

require (
	github.com/dtm-labs/dtmcli v1.14.2
	github.com/go-chi/chi/v5 v5.2.1
	github.com/go-chi/render v1.0.3
)

require (
	github.com/BurntSushi/toml v1.4.1-0.20240526193622-a339e1f7089c // indirect
	github.com/ajg/form v1.5.1 // indirect
	github.com/cespare/xxhash/v2 v2.3.0 // indirect
	github.com/davecgh/go-spew v1.1.2-0.20180830191138-d8f796af33cc // indirect
	github.com/dgryski/go-rendezvous v0.0.0-20200823014737-9f7001d12a5f // indirect
	github.com/dtm-labs/dtmdriver v0.0.3 // indirect
	github.com/fsnotify/fsnotify v1.8.0 // indirect
	github.com/go-redis/redis/v8 v8.11.4 // indirect
	github.com/go-resty/resty/v2 v2.6.0 // indirect
	github.com/golang/snappy v0.0.5-0.20220116011046-fa5810519dcb // indirect
	github.com/google/go-cmp v0.7.0 // indirect
	github.com/klauspost/compress v1.18.0 // indirect
	github.com/montanaflynn/stats v0.7.1 // indirect
	github.com/natefinch/lumberjack v2.0.0+incompatible // indirect
	github.com/onsi/ginkgo v1.16.5 // indirect
	github.com/onsi/gomega v1.36.2 // indirect
	github.com/pmezard/go-difflib v1.0.1-0.20181226105442-5d4384ee4fb2 // indirect
	github.com/stretchr/testify v1.10.0 // indirect
	github.com/xdg-go/pbkdf2 v1.0.0 // indirect
	github.com/xdg-go/scram v1.1.2 // indirect
	github.com/xdg-go/stringprep v1.0.4 // indirect
	github.com/youmark/pkcs8 v0.0.0-20240726163527-a2c0da244d78 // indirect
	go.mongodb.org/mongo-driver v1.17.2 // indirect
	go.uber.org/multierr v1.11.0 // indirect
	go.uber.org/zap v1.27.0 // indirect
	golang.org/x/crypto v0.36.0 // indirect
	golang.org/x/net v0.37.0 // indirect
	golang.org/x/sync v0.12.0 // indirect
	golang.org/x/text v0.23.0 // indirect
	gopkg.in/natefinch/lumberjack.v2 v2.2.1 // indirect
)
